Mini Project 01 – STA 9750 Submission Material
…
longest_tv_show_run <- COUNTRY_TOP_10 |>
  filter(category == "TV") |>
  group_by(country_name, show_title) |>
  summarise(weeks = max(cumulative_weeks_in_top_10, na.rm = TRUE)) |>
  ungroup() |>
  arrange(desc(weeks))

`summarise()` has grouped output by 'country_name'. You can override using the
`.groups` argument.

Show technical details

longest_tv_show_run

# A tibble: 47,149 × 3
   country_name show_title                       weeks
   <chr>        <chr>                            <dbl>
 1 Pakistan     Money Heist                        127
 2 Brazil       Lottie Dottie Chicken              113
 3 Colombia     Pablo Escobar, el patrón del mal   102
 4 El Salvador  Pablo Escobar, el patrón del mal   102
 5 Honduras     Pablo Escobar, el patrón del mal   102
 6 Honduras     Pasión de Gavilanes                102
 7 Nicaragua    Pablo Escobar, el patrón del mal   102
 8 Venezuela    Pablo Escobar, el patrón del mal   102
 9 Guatemala    Pablo Escobar, el patrón del mal   101
10 Ecuador      Pasión de Gavilanes                100
# ℹ 47,139 more rows
…
