Mini Project 2: Making Backyards Affordable for All – STA 9750 Submission Material
…
----------------------------------------------------------------------------------- 

Show code

perfect_yimby <- yimby_criteria |> filter(yimby_score == 4)
if (nrow(perfect_yimby) > 0) {
  print(perfect_yimby |> 
          select(NAME, yimby_score, early_rent_burden, rent_burden_change, 
                 population_growth_pct, avg_housing_growth))
} else {
  cat("No CBSAs meet all 4 criteria.\n")
}

# A tibble: 62 × 6
   NAME   yimby_score early_rent_burden rent_burden_change population_growth_pct
   <chr>        <dbl>             <dbl>              <dbl>                 <dbl>
 1 Athen…           4              58.5             -4.29                  14.4 
 2 Atlan…           4              59.0             -6.54                  36.1 
 3 Aubur…           4              53.6             -2.26                  49.2 
 4 Augus…           4              50.5             -1.73                  16.4 
 5 Balti…           4              50.5             -0.862                  2.29
 6 Bango…           4              50.7             -2.32                   3.94
 7 Barns…           4              56.6             -3.02                   4.79
 8 Brown…           4              58.9             -6.60                   7.65
 9 Burli…           4              51.1             -3.00                  19.2 
10 Champ…           4              51.9             -4.37                   5.74
# ℹ 52 more rows
# ℹ 1 more variable: avg_housing_growth <dbl>
…
